{
	"name": "engineers",
	"project": "ss44_common",
	"types": [ {
		"humanName": "Sapper",
		"id": 70,
		"name": "gbrhqaiengineer"
	}, {
		"humanName": "Sapper",
		"id": 71,
		"name": "gbrhqengineer"
	}, {
		"humanName": "Feldpionier",
		"id": 171,
		"name": "gerhqaiengineer"
	}, {
		"humanName": "Feldpionier",
		"id": 173,
		"name": "gerhqengineer"
	}, {
		"humanName": "Engineer",
		"id": 289,
		"name": "hunengineer"
	}, {
		"humanName": "Engineer",
		"id": 302,
		"name": "hunhqaiengineer"
	}, {
		"humanName": "Field Engineer",
		"id": 411,
		"name": "itahqaiengineer"
	}, {
		"humanName": "Field Engineer",
		"id": 412,
		"name": "itahqengineer"
	}, {
		"humanName": "Field",
		"id": 512,
		"name": "jpnhqaiengineer"
	}, {
		"humanName": "Field",
		"id": 513,
		"name": "jpnhqengineer"
	}, {
		"humanName": "Engineer",
		"id": 628,
		"name": "ruscommissar"
	}, {
		"humanName": "Engineer",
		"id": 630,
		"name": "rusengineer"
	}, {
		"humanName": "Ingenjörer",
		"id": 755,
		"name": "sweengineer"
	}, {
		"humanName": "Ingenjörer",
		"id": 763,
		"name": "swehqaiengineer"
	}, {
		"humanName": "Field Engineer",
		"id": 872,
		"name": "ushqaiengineer"
	}, {
		"humanName": "Field Engineer",
		"id": 873,
		"name": "ushqengineer"
	} ]
}